Search for terms in a glossary in case-insensitive ways — search_in_columns • hercacstables
…
#>  7 school district (element… {state}                {state}           2023-01-01
#>  8 school district (seconda… {state}                {state}           2023-01-01
#>  9 school district (unified) {state}                {state}           2023-01-01
#> 10 county                    {state}; {metropolita… {state}           NA        
#> 11 tract                     {state, county}        {county}          NA        
#> 12 block group               {state, county, tract} {tract}           NA        
#> 13 consolidated city         {state}                {state}           NA        
#> 14 tribal subdivision/remai… {american indian area… {american indian… NA        
#> # ℹ abbreviated name: ¹​`Containing Geographies`
#> # ℹ 1 more variable: ACS5 <date>
hercacstables::search_in_columns(
  hercacstables::METADATA_FOR_ACS_GEOGRAPHIES,
  `-Wildcard Option` = "."
)
#> # A tibble: 32 × 5
#>    `Geographic Level`        Containing Geographi…¹ `Wildcard Option` ACS1      
#>    <chr>                     <chr>                  <chr>             <date>    
#>  1 us                        ""                     ""                2023-01-01
#>  2 region                    ""                     ""                2023-01-01
#>  3 division                  ""                     ""                2023-01-01
#>  4 state                     ""                     ""                2023-01-01
#>  5 american indian area/ala… ""                     ""                2023-01-01
#>  6 metropolitan statistical… ""                     ""                2023-01-01
#>  7 principal city (or part)  "{metropolitan statis… ""                2023-01-01
#>  8 metropolitan division     "{metropolitan statis… ""                2023-01-01
#>  9 combined statistical area ""                     ""                2023-01-01
#> 10 urban area                ""                     ""                2023-01-01
#> # ℹ 22 more rows
#> # ℹ abbreviated name: ¹​`Containing Geographies`
#> # ℹ 1 more variable: ACS5 <date>
…
